^D:\WORKDB\DROPBOX\GLCLIENT\GLSERVER\GLSERVER\RELEASE\CLIENT.OBJ|D:\WORKDB\DROPBOX\GLCLIENT\GLSERVER\GLSERVER\RELEASE\FRAMEWORK.OBJ
D:\WORKDB\DROPBOX\GLCLIENT\GLSERVER\RELEASE\GLCLIENT.EXE
D:\WORKDB\DROPBOX\GLCLIENT\GLSERVER\RELEASE\GLCLIENT.PDB
^C:\USERS\JAMES\DESKTOP\DEMOS\C++\GLCLIENT\GLSERVER\GLSERVER\RELEASE\CLIENT.OBJ|C:\USERS\JAMES\DESKTOP\DEMOS\C++\GLCLIENT\GLSERVER\GLSERVER\RELEASE\FRAMEWORK.OBJ
C:\USERS\JAMES\DESKTOP\DEMOS\C++\GLCLIENT\GLSERVER\RELEASE\GLCLIENT.EXE
C:\USERS\JAMES\DESKTOP\DEMOS\C++\GLCLIENT\GLSERVER\RELEASE\GLCLIENT.PDB
