^D:\WORKDB\DROPBOX\GLSERVER\GLSERVER\ASTEROIDOBJECT.CPP
/c /ZI /nologo /W3 /WX- /Od /Oy- /D WIN32 /D _DEBUG /D _CONSOLE /D _UNICODE /D UNICODE /Gm /EHsc /RTC1 /MDd /GS /fp:precise /Zc:wchar_t /Zc:forScope /Fo"DEBUG\\" /Fd"DEBUG\VC120.PDB" /Gd /TP /analyze- /TP  D:\WORKDB\DROPBOX\GLSERVER\GLSERVER\ASTEROIDOBJECT.CPP
^D:\WORKDB\DROPBOX\GLSERVER\GLSERVER\BACKGROUNDOBJECT.CPP
/c /ZI /nologo /W3 /WX- /Od /Oy- /D WIN32 /D _DEBUG /D _CONSOLE /D _UNICODE /D UNICODE /Gm /EHsc /RTC1 /MDd /GS /fp:precise /Zc:wchar_t /Zc:forScope /Fo"DEBUG\\" /Fd"DEBUG\VC120.PDB" /Gd /TP /analyze- /TP  D:\WORKDB\DROPBOX\GLSERVER\GLSERVER\BACKGROUNDOBJECT.CPP
^D:\WORKDB\DROPBOX\GLSERVER\GLSERVER\BULLETOBJECT.CPP
/c /ZI /nologo /W3 /WX- /Od /Oy- /D WIN32 /D _DEBUG /D _CONSOLE /D _UNICODE /D UNICODE /Gm /EHsc /RTC1 /MDd /GS /fp:precise /Zc:wchar_t /Zc:forScope /Fo"DEBUG\\" /Fd"DEBUG\VC120.PDB" /Gd /TP /analyze- /TP  D:\WORKDB\DROPBOX\GLSERVER\GLSERVER\BULLETOBJECT.CPP
^D:\WORKDB\DROPBOX\GLSERVER\GLSERVER\CPUMONITOR.CPP
/c /ZI /nologo /W3 /WX- /Od /Oy- /D WIN32 /D _DEBUG /D _CONSOLE /D _UNICODE /D UNICODE /Gm /EHsc /RTC1 /MDd /GS /fp:precise /Zc:wchar_t /Zc:forScope /Fo"DEBUG\\" /Fd"DEBUG\VC120.PDB" /Gd /TP /analyze- /TP  D:\WORKDB\DROPBOX\GLSERVER\GLSERVER\CPUMONITOR.CPP
^D:\WORKDB\DROPBOX\GLSERVER\GLSERVER\CURRENTGAMEWORLD.CPP
/c /ZI /nologo /W3 /WX- /Od /Oy- /D WIN32 /D _DEBUG /D _CONSOLE /D _UNICODE /D UNICODE /Gm /EHsc /RTC1 /MDd /GS /fp:precise /Zc:wchar_t /Zc:forScope /Fo"DEBUG\\" /Fd"DEBUG\VC120.PDB" /Gd /TP /analyze- /TP  D:\WORKDB\DROPBOX\GLSERVER\GLSERVER\CURRENTGAMEWORLD.CPP
^D:\WORKDB\DROPBOX\GLSERVER\GLSERVER\FRAMEWORK.CPP
/c /ZI /nologo /W3 /WX- /Od /Oy- /D WIN32 /D _DEBUG /D _CONSOLE /D _UNICODE /D UNICODE /Gm /EHsc /RTC1 /MDd /GS /fp:precise /Zc:wchar_t /Zc:forScope /Fo"DEBUG\\" /Fd"DEBUG\VC120.PDB" /Gd /TP /analyze- /TP  D:\WORKDB\DROPBOX\GLSERVER\GLSERVER\FRAMEWORK.CPP
^D:\WORKDB\DROPBOX\GLSERVER\GLSERVER\GAMEOBJECT.CPP
/c /ZI /nologo /W3 /WX- /Od /Oy- /D WIN32 /D _DEBUG /D _CONSOLE /D _UNICODE /D UNICODE /Gm /EHsc /RTC1 /MDd /GS /fp:precise /Zc:wchar_t /Zc:forScope /Fo"DEBUG\\" /Fd"DEBUG\VC120.PDB" /Gd /TP /analyze- /TP  D:\WORKDB\DROPBOX\GLSERVER\GLSERVER\GAMEOBJECT.CPP
^D:\WORKDB\DROPBOX\GLSERVER\GLSERVER\GAMEWORLD.CPP
/c /ZI /nologo /W3 /WX- /Od /Oy- /D WIN32 /D _DEBUG /D _CONSOLE /D _UNICODE /D UNICODE /Gm /EHsc /RTC1 /MDd /GS /fp:precise /Zc:wchar_t /Zc:forScope /Fo"DEBUG\\" /Fd"DEBUG\VC120.PDB" /Gd /TP /analyze- /TP  D:\WORKDB\DROPBOX\GLSERVER\GLSERVER\GAMEWORLD.CPP
^D:\WORKDB\DROPBOX\GLSERVER\GLSERVER\IMAGELIBRARY.CPP
/c /ZI /nologo /W3 /WX- /Od /Oy- /D WIN32 /D _DEBUG /D _CONSOLE /D _UNICODE /D UNICODE /Gm /EHsc /RTC1 /MDd /GS /fp:precise /Zc:wchar_t /Zc:forScope /Fo"DEBUG\\" /Fd"DEBUG\VC120.PDB" /Gd /TP /analyze- /TP  D:\WORKDB\DROPBOX\GLSERVER\GLSERVER\IMAGELIBRARY.CPP
^D:\WORKDB\DROPBOX\GLSERVER\GLSERVER\PROJECTILEOBJECT.CPP
/c /ZI /nologo /W3 /WX- /Od /Oy- /D WIN32 /D _DEBUG /D _CONSOLE /D _UNICODE /D UNICODE /Gm /EHsc /RTC1 /MDd /GS /fp:precise /Zc:wchar_t /Zc:forScope /Fo"DEBUG\\" /Fd"DEBUG\VC120.PDB" /Gd /TP /analyze- /TP  D:\WORKDB\DROPBOX\GLSERVER\GLSERVER\PROJECTILEOBJECT.CPP
^D:\WORKDB\DROPBOX\GLSERVER\GLSERVER\SERVER.CPP
/c /ZI /nologo /W3 /WX- /Od /Oy- /D WIN32 /D _DEBUG /D _CONSOLE /D _UNICODE /D UNICODE /Gm /EHsc /RTC1 /MDd /GS /fp:precise /Zc:wchar_t /Zc:forScope /Fo"DEBUG\\" /Fd"DEBUG\VC120.PDB" /Gd /TP /analyze- /TP  D:\WORKDB\DROPBOX\GLSERVER\GLSERVER\SERVER.CPP
^D:\WORKDB\DROPBOX\GLSERVER\GLSERVER\SHIPOBJECT.CPP
/c /ZI /nologo /W3 /WX- /Od /Oy- /D WIN32 /D _DEBUG /D _CONSOLE /D _UNICODE /D UNICODE /Gm /EHsc /RTC1 /MDd /GS /fp:precise /Zc:wchar_t /Zc:forScope /Fo"DEBUG\\" /Fd"DEBUG\VC120.PDB" /Gd /TP /analyze- /TP  D:\WORKDB\DROPBOX\GLSERVER\GLSERVER\SHIPOBJECT.CPP
^D:\WORKDB\DROPBOX\GLSERVER\GLSERVER\SPACEWORLD.CPP
/c /ZI /nologo /W3 /WX- /Od /Oy- /D WIN32 /D _DEBUG /D _CONSOLE /D _UNICODE /D UNICODE /Gm /EHsc /RTC1 /MDd /GS /fp:precise /Zc:wchar_t /Zc:forScope /Fo"DEBUG\\" /Fd"DEBUG\VC120.PDB" /Gd /TP /analyze- /TP  D:\WORKDB\DROPBOX\GLSERVER\GLSERVER\SPACEWORLD.CPP
^D:\WORKDB\DROPBOX\GLSERVER\GLSERVER\USER.CPP
/c /ZI /nologo /W3 /WX- /Od /Oy- /D WIN32 /D _DEBUG /D _CONSOLE /D _UNICODE /D UNICODE /Gm /EHsc /RTC1 /MDd /GS /fp:precise /Zc:wchar_t /Zc:forScope /Fo"DEBUG\\" /Fd"DEBUG\VC120.PDB" /Gd /TP /analyze- /TP  D:\WORKDB\DROPBOX\GLSERVER\GLSERVER\USER.CPP
^D:\WORKDB\DROPBOX\GLSERVER\GLSERVER\VECTOR2.CPP
/c /ZI /nologo /W3 /WX- /Od /Oy- /D WIN32 /D _DEBUG /D _CONSOLE /D _UNICODE /D UNICODE /Gm /EHsc /RTC1 /MDd /GS /fp:precise /Zc:wchar_t /Zc:forScope /Fo"DEBUG\\" /Fd"DEBUG\VC120.PDB" /Gd /TP /analyze- /TP  D:\WORKDB\DROPBOX\GLSERVER\GLSERVER\VECTOR2.CPP
^D:\WORKDB\DROPBOX\GLSERVER\GLSERVER\SOIL\IMAGE_DXT.C
/c /ZI /nologo /W3 /WX- /Od /Oy- /D WIN32 /D _DEBUG /D _CONSOLE /D _UNICODE /D UNICODE /Gm /EHsc /RTC1 /MDd /GS /fp:precise /Zc:wchar_t /Zc:forScope /Fo"DEBUG\\" /Fd"DEBUG\VC120.PDB" /Gd /TC /analyze- /TP  D:\WORKDB\DROPBOX\GLSERVER\GLSERVER\SOIL\IMAGE_DXT.C
^D:\WORKDB\DROPBOX\GLSERVER\GLSERVER\SOIL\IMAGE_HELPER.C
/c /ZI /nologo /W3 /WX- /Od /Oy- /D WIN32 /D _DEBUG /D _CONSOLE /D _UNICODE /D UNICODE /Gm /EHsc /RTC1 /MDd /GS /fp:precise /Zc:wchar_t /Zc:forScope /Fo"DEBUG\\" /Fd"DEBUG\VC120.PDB" /Gd /TC /analyze- /TP  D:\WORKDB\DROPBOX\GLSERVER\GLSERVER\SOIL\IMAGE_HELPER.C
^D:\WORKDB\DROPBOX\GLSERVER\GLSERVER\SOIL\SOIL.C
/c /ZI /nologo /W3 /WX- /Od /Oy- /D WIN32 /D _DEBUG /D _CONSOLE /D _UNICODE /D UNICODE /Gm /EHsc /RTC1 /MDd /GS /fp:precise /Zc:wchar_t /Zc:forScope /Fo"DEBUG\\" /Fd"DEBUG\VC120.PDB" /Gd /TC /analyze- /TP  D:\WORKDB\DROPBOX\GLSERVER\GLSERVER\SOIL\SOIL.C
^D:\WORKDB\DROPBOX\GLSERVER\GLSERVER\SOIL\STB_IMAGE_AUG.C
/c /ZI /nologo /W3 /WX- /Od /Oy- /D WIN32 /D _DEBUG /D _CONSOLE /D _UNICODE /D UNICODE /Gm /EHsc /RTC1 /MDd /GS /fp:precise /Zc:wchar_t /Zc:forScope /Fo"DEBUG\\" /Fd"DEBUG\VC120.PDB" /Gd /TC /analyze- /TP  D:\WORKDB\DROPBOX\GLSERVER\GLSERVER\SOIL\STB_IMAGE_AUG.C
^C:\USERS\JAMES\APPDATA\LOCAL\TEMP\.NETFRAMEWORK,VERSION=V4.0.ASSEMBLYATTRIBUTES.CPP
/c /Zi /clr /nologo /W3 /WX- /Od /Oy- /D WIN32 /D _DEBUG /D _CONSOLE /D _UNICODE /D UNICODE /EHa /MDd /GS /fp:precise /Zc:wchar_t /Zc:forScope /Fo"DEBUG\\" /Fd"DEBUG\VC120.PDB" /TP /analyze- /TP  C:\USERS\JAMES\APPDATA\LOCAL\TEMP\.NETFRAMEWORK,VERSION=V4.0.ASSEMBLYATTRIBUTES.CPP
